{
    "name": "GameScreenAssembly",
    "references": [
        "GUID:6055be8ebefd69e48b49212b09b47b2f",
        "GUID:4d4f29561067ed94c933f69715f7637c",
        "GUID:560b04d1a97f54a4e82edc0cbbb69285"
    ],
    "includePlatforms": [],
    "excludePlatforms": [],
    "allowUnsafeCode": false,
    "overrideReferences": false,
    "precompiledReferences": [],
    "autoReferenced": true,
    "defineConstraints": [],
    "versionDefines": [],
    "noEngineReferences": false
}